info face="Arial" size=32 bold=0 italic=0 charset="" unicode=1 stretchH=100 smooth=1 aa=1 padding=0,0,0,0 spacing=1,1 outline=0
common lineHeight=32 base=26 scaleW=256 scaleH=256 pages=1 packed=0 alphaChnl=1 redChnl=0 greenChnl=0 blueChnl=0
page id=0 file="signdanzi.png"
chars count=10
char id=48   x=12    y=0     width=10    height=16    xoffset=0     yoffset=0     xadvance=10    page=0  chnl=15
char id=49   x=99    y=0     width=6     height=16    xoffset=0     yoffset=0     xadvance=6     page=0  chnl=15
char id=50   x=23    y=0     width=10    height=16    xoffset=0     yoffset=0     xadvance=10    page=0  chnl=15
char id=51   x=34    y=0     width=10    height=16    xoffset=0     yoffset=0     xadvance=10    page=0  chnl=15
char id=52   x=0     y=0     width=11    height=16    xoffset=0     yoffset=0     xadvance=11    page=0  chnl=15
char id=53   x=45    y=0     width=10    height=16    xoffset=0     yoffset=0     xadvance=10    page=0  chnl=15
char id=54   x=56    y=0     width=10    height=16    xoffset=0     yoffset=0     xadvance=10    page=0  chnl=15
char id=55   x=89    y=0     width=9     height=16    xoffset=0     yoffset=0     xadvance=9     page=0  chnl=15
char id=56   x=67    y=0     width=10    height=16    xoffset=0     yoffset=0     xadvance=10    page=0  chnl=15
char id=57   x=78    y=0     width=10    height=16    xoffset=0     yoffset=0     xadvance=10    page=0  chnl=15
